<?xml version="1.0" standalone="no"?>
<!DOCTYPE svg PUBLIC "-//W3C//DTD SVG 20010904//EN"
 "http://www.w3.org/TR/2001/REC-SVG-20010904/DTD/svg10.dtd">
<svg version="1.0" xmlns="http://www.w3.org/2000/svg"
 width="400.000000pt" height="400.000000pt" viewBox="0 0 400.000000 400.000000"
 preserveAspectRatio="xMidYMid meet">
<metadata>
Created by potrace 1.11, written by Peter Selinger 2001-2013
</metadata>
<g transform="translate(0.000000,400.000000) scale(0.100000,-0.100000)"
fill="#000000" stroke="none">
<path d="M1355 3904 c-92 -14 -199 -39 -270 -63 -363 -126 -665 -442 -770
-806 -67 -232 -71 -455 -11 -680 80 -302 293 -580 571 -743 211 -123 427 -172
769 -172 99 0 127 -3 123 -12 -3 -7 -75 -163 -161 -347 -86 -184 -155 -336
-152 -338 2 -2 103 10 225 27 122 16 224 30 227 30 3 0 -43 -93 -101 -207
-107 -208 -107 -208 -103 -270 4 -69 20 -97 82 -147 34 -28 45 -31 104 -31 54
0 73 4 100 24 39 27 46 24 33 -13 -6 -14 -9 -26 -6 -26 2 0 250 299 551 665
515 626 550 666 588 675 228 58 426 220 535 437 97 195 107 463 24 670 -76
190 -267 380 -456 456 -166 66 -381 75 -563 21 -19 -5 -24 0 -34 33 -7 21 -31
76 -55 123 -171 348 -469 585 -845 671 -83 19 -334 33 -405 23z"/>
</g>
</svg>
